rob-param,dofs,converged,nl-its,tot-krylov,avg-krylov,time
1e5,207831,True,82,0,0.00,158.42
1e6,207831,True,88,0,0.00,165.94
1.25e6,207831,True,91,0,0.00,173.47
1.5e6,207831,True,95,0,0.00,183.06
1.75e6,207831,True,110,0,0.00,202.72
2e6,207831,False,79,0,0.00,119.95
