mesh,nl-its,avg-krylov,time
prolate_h4_v2_ASCII,4.1, 6.81, 25.3685754844686
prolate_4mm,4.4, 5.75, 74.97618524313438
prolate_h4_v2_ASCII_ref,4.7, 7.030714285714285, 241.95169703389985
prolate_4mm_ref,4.6, 6.74, 677.0311876920517
