rob-param,converged,nl-its,tot-krylov,avg-krylov,time
10000.0,True,23.9,0.0,0.0,35.676714182598516
20000.0,True,24.9,0.0,0.0,53.306937696225944
30000.0,True,27.1,0.0,0.0,56.52812645402737
40000.0,True,30.2,0.0,0.0,59.52929308630992
