mesh,nl-its,avg-krylov,time
prolate_h4_v2_ASCII,19.3, 0.0, 3.0921396871097384
prolate_4mm,17.6, 0.0, 8.254930456494913
prolate_h4_v2_ASCII_ref,22.1, 0.0, 26.624112735991368
prolate_4mm_ref,21.1, 0.0, 73.48957426520064
